\relax 
\providecommand\hyper@newdestlabel[2]{}
\providecommand\HyperFirstAtBeginDocument{\AtBeginDocument}
\HyperFirstAtBeginDocument{\ifx\hyper@anchor\@undefined
\global\let\oldcontentsline\contentsline
\gdef\contentsline#1#2#3#4{\oldcontentsline{#1}{#2}{#3}}
\global\let\oldnewlabel\newlabel
\gdef\newlabel#1#2{\newlabelxx{#1}#2}
\gdef\newlabelxx#1#2#3#4#5#6{\oldnewlabel{#1}{{#2}{#3}}}
\AtEndDocument{\ifx\hyper@anchor\@undefined
\let\contentsline\oldcontentsline
\let\newlabel\oldnewlabel
\fi}
\fi}
\global\let\hyper@last\relax 
\gdef\HyperFirstAtBeginDocument#1{#1}
\providecommand\HyField@AuxAddToFields[1]{}
\providecommand\HyField@AuxAddToCoFields[2]{}
\@writefile{toc}{\contentsline {section}{\numberline {1}Opis programu}{2}{section.1}}
\@writefile{toc}{\contentsline {section}{\numberline {2}Wymagania funkcjonalne}{2}{section.2}}
\@writefile{toc}{\contentsline {section}{\numberline {3}Opis wej\IeC {\'s}cia i wyj\IeC {\'s}cia}{2}{section.3}}
\@writefile{toc}{\contentsline {subsection}{\numberline {3.1}Dane wej\IeC {\'s}ciowe}{2}{subsection.3.1}}
\newlabel{dwe}{{3.1}{2}{Dane wejściowe}{subsection.3.1}{}}
\@writefile{toc}{\contentsline {subsubsection}{\numberline {3.1.1}Informacje og\IeC {\'o}lne}{2}{subsubsection.3.1.1}}
\@writefile{toc}{\contentsline {subsubsection}{\numberline {3.1.2}Zasady tworzenia pliku wej\IeC {\'s}ciowego}{3}{subsubsection.3.1.2}}
\@writefile{toc}{\contentsline {subsubsection}{\numberline {3.1.3}Przyk\IeC {\l }ad pliku wej\IeC {\'s}ciowego}{4}{subsubsection.3.1.3}}
\newlabel{plikw}{{3.1.3}{4}{Przykład pliku wejściowego}{subsubsection.3.1.3}{}}
\@writefile{toc}{\contentsline {subsection}{\numberline {3.2}Dane wyj\IeC {\'s}ciowe}{5}{subsection.3.2}}
\@writefile{toc}{\contentsline {section}{\numberline {4}Obs\IeC {\l }uga interfejsu}{5}{section.4}}
\@writefile{toc}{\contentsline {subsection}{\numberline {4.1}Nawigacja}{5}{subsection.4.1}}
\newlabel{makieta}{{4.1}{5}{Nawigacja}{subsection.4.1}{}}
\@writefile{lof}{\contentsline {figure}{\numberline {1}{\ignorespaces \IeC {\L }adowanie pliku wej\IeC {\'s}ciowego}}{6}{figure.1}}
\newlabel{fig:start}{{1}{6}{Ładowanie pliku wejściowego}{figure.1}{}}
\@writefile{lof}{\contentsline {figure}{\numberline {2}{\ignorespaces Komunikat b\IeC {\l }\IeC {\k e}du w pliku}}{7}{figure.2}}
\newlabel{fig:zlyplik}{{2}{7}{Komunikat błędu w pliku}{figure.2}{}}
\@writefile{lof}{\contentsline {figure}{\numberline {3}{\ignorespaces Okno z wygenerowan\IeC {\k a} map\IeC {\k a}}}{8}{figure.3}}
\newlabel{fig:baza}{{3}{8}{Okno z wygenerowaną mapą}{figure.3}{}}
\@writefile{lof}{\contentsline {figure}{\numberline {4}{\ignorespaces Menu kontekstowe obszaru}}{9}{figure.4}}
\newlabel{fig:kursorNaObszar}{{4}{9}{Menu kontekstowe obszaru}{figure.4}{}}
\@writefile{lof}{\contentsline {figure}{\numberline {5}{\ignorespaces Menu kontekstowe punktu}}{10}{figure.5}}
\newlabel{fig:kursorNaPkt}{{5}{10}{Menu kontekstowe punktu}{figure.5}{}}
\@writefile{lof}{\contentsline {figure}{\numberline {6}{\ignorespaces Statystyki dla wybranego obszaru}}{11}{figure.6}}
\newlabel{fig:staty}{{6}{11}{Statystyki dla wybranego obszaru}{figure.6}{}}
\@writefile{lof}{\contentsline {figure}{\numberline {7}{\ignorespaces Wybieranie grafiki dla wybranego obszaru}}{11}{figure.7}}
\newlabel{fig:kolory}{{7}{11}{Wybieranie grafiki dla wybranego obszaru}{figure.7}{}}
\@writefile{lof}{\contentsline {figure}{\numberline {8}{\ignorespaces Dodawanie punktu}}{12}{figure.8}}
\newlabel{fig:dodajpkt}{{8}{12}{Dodawanie punktu}{figure.8}{}}
\@writefile{lof}{\contentsline {figure}{\numberline {9}{\ignorespaces Modyfikacja oraz usuwanie punktu}}{13}{figure.9}}
\newlabel{fig:usunpkt}{{9}{13}{Modyfikacja oraz usuwanie punktu}{figure.9}{}}
\@writefile{lof}{\contentsline {figure}{\numberline {10}{\ignorespaces Komunikat b\IeC {\l }\IeC {\k e}du dodawania lub modyfikacji punktu}}{14}{figure.10}}
\newlabel{fig:zlypkt}{{10}{14}{Komunikat błędu dodawania lub modyfikacji punktu}{figure.10}{}}
\@writefile{lof}{\contentsline {figure}{\numberline {11}{\ignorespaces Rozwini\IeC {\k e}cia menu z paska g\IeC {\'o}rnego}}{15}{figure.11}}
\newlabel{fig:menus}{{11}{15}{Rozwinięcia menu z paska górnego}{figure.11}{}}
\@writefile{toc}{\contentsline {subsection}{\numberline {4.2}Instrukcja u\IeC {\.z}ycia}{16}{subsection.4.2}}
\newlabel{uzycie}{{4.2}{16}{Instrukcja użycia}{subsection.4.2}{}}
\@writefile{toc}{\contentsline {section}{\numberline {5}Komunikaty systemowe}{16}{section.5}}
\newlabel{komu}{{5}{16}{Komunikaty systemowe}{section.5}{}}
\@writefile{toc}{\contentsline {section}{\numberline {6}Opis test\IeC {\'o}w akceptacyjnych}{18}{section.6}}
\@writefile{toc}{\contentsline {section}{\numberline {7}Uwagi ko\IeC {\'n}cowe}{18}{section.7}}
\@writefile{toc}{\contentsline {section}{\numberline {8}Bibliografia}{18}{section.8}}
\newlabel{LastPage}{{}{18}{}{page.18}{}}
\xdef\lastpage@lastpage{18}
\xdef\lastpage@lastpageHy{18}
