\contentsline {section}{\numberline {1}Opis programu}{2}{section.1}
\contentsline {section}{\numberline {2}Wymagania funkcjonalne}{2}{section.2}
\contentsline {section}{\numberline {3}Opis wej\IeC {\'s}cia i wyj\IeC {\'s}cia}{2}{section.3}
\contentsline {subsection}{\numberline {3.1}Dane wej\IeC {\'s}ciowe}{2}{subsection.3.1}
\contentsline {subsubsection}{\numberline {3.1.1}Informacje og\IeC {\'o}lne}{2}{subsubsection.3.1.1}
\contentsline {subsubsection}{\numberline {3.1.2}Zasady tworzenia pliku wej\IeC {\'s}ciowego}{3}{subsubsection.3.1.2}
\contentsline {subsubsection}{\numberline {3.1.3}Przyk\IeC {\l }ad pliku wej\IeC {\'s}ciowego}{4}{subsubsection.3.1.3}
\contentsline {subsection}{\numberline {3.2}Dane wyj\IeC {\'s}ciowe}{5}{subsection.3.2}
\contentsline {section}{\numberline {4}Obs\IeC {\l }uga interfejsu}{5}{section.4}
\contentsline {subsection}{\numberline {4.1}Nawigacja}{5}{subsection.4.1}
\contentsline {subsection}{\numberline {4.2}Instrukcja u\IeC {\.z}ycia}{16}{subsection.4.2}
\contentsline {section}{\numberline {5}Komunikaty systemowe}{16}{section.5}
\contentsline {section}{\numberline {6}Opis test\IeC {\'o}w akceptacyjnych}{18}{section.6}
\contentsline {section}{\numberline {7}Uwagi ko\IeC {\'n}cowe}{18}{section.7}
\contentsline {section}{\numberline {8}Bibliografia}{18}{section.8}
