\contentsline {section}{\numberline {1}Wst\IeC {\k e}p teoretyczny}{2}{section.1}
\contentsline {section}{\numberline {2}Algorytm}{2}{section.2}
\contentsline {subsection}{\numberline {2.1}Opis og\IeC {\'o}lny}{2}{subsection.2.1}
\contentsline {subsection}{\numberline {2.2}Lista krok\IeC {\'o}w}{2}{subsection.2.2}
\contentsline {subsection}{\numberline {2.3}Opis u\IeC {\.z}ytych symboli}{2}{subsection.2.3}
\contentsline {section}{\numberline {3}Diagram klas}{3}{section.3}
\contentsline {section}{\numberline {4}Opis klas oraz ich p\IeC {\'o}l i metod}{4}{section.4}
\contentsline {subsection}{\numberline {4.1}Gui}{4}{subsection.4.1}
\contentsline {subsection}{\numberline {4.2}Point}{4}{subsection.4.2}
\contentsline {subsection}{\numberline {4.3}Object}{4}{subsection.4.3}
\contentsline {subsection}{\numberline {4.4}File\textunderscore validation}{4}{subsection.4.4}
\contentsline {subsection}{\numberline {4.5}Voronoi}{5}{subsection.4.5}
\contentsline {subsection}{\numberline {4.6}Diagram\textunderscore drawing}{5}{subsection.4.6}
\contentsline {section}{\numberline {5}Sprz\IeC {\k e}t i oprogramowanie}{5}{section.5}
\contentsline {subsection}{\numberline {5.1}Wykorzystany sprz\IeC {\k e}t i oprogramowanie}{5}{subsection.5.1}
\contentsline {subsection}{\numberline {5.2}Instrukcja pobierania oprogramowania dla u\IeC {\.z}ytkownika}{6}{subsection.5.2}
\contentsline {section}{\numberline {6}Testy jednostkowe}{6}{section.6}
\contentsline {section}{\numberline {7}Uwagi ko\IeC {\'n}cowe}{6}{section.7}
\contentsline {section}{\numberline {8}Bibliografia}{7}{section.8}
