([('MainWindow.exe',
   'C:\\Users\\prego\\OneDrive\\Dokumenty\\PyCharmProjects\\2018Z_AISD_proj_zesp_gr10\\kod\\PZRSP\\view\\build\\MainWindow\\MainWindow.exe',
   'EXECUTABLE'),
  ('MainWindow.exe.manifest',
   'C:\\Users\\prego\\OneDrive\\Dokumenty\\PyCharmProjects\\2018Z_AISD_proj_zesp_gr10\\kod\\PZRSP\\view\\build\\MainWindow\\MainWindow.exe.manifest',
   'BINARY'),
  ('api-ms-win-crt-locale-l1-1-0.dll',
   'C:\\Users\\prego\\AppData\\Local\\Programs\\MiKTeX '
   '2.9\\miktex\\bin\\x64\\api-ms-win-crt-locale-l1-1-0.dll',
   'BINARY'),
  ('api-ms-win-crt-heap-l1-1-0.dll',
   'C:\\Users\\prego\\AppData\\Local\\Programs\\MiKTeX '
   '2.9\\miktex\\bin\\x64\\api-ms-win-crt-heap-l1-1-0.dll',
   'BINARY'),
  ('VCRUNTIME140.dll',
   'c:\\users\\prego\\appdata\\local\\programs\\python\\python36\\VCRUNTIME140.dll',
   'BINARY'),
  ('api-ms-win-crt-runtime-l1-1-0.dll',
   'C:\\Users\\prego\\AppData\\Local\\Programs\\MiKTeX '
   '2.9\\miktex\\bin\\x64\\api-ms-win-crt-runtime-l1-1-0.dll',
   'BINARY'),
  ('api-ms-win-crt-math-l1-1-0.dll',
   'C:\\Users\\prego\\AppData\\Local\\Programs\\MiKTeX '
   '2.9\\miktex\\bin\\x64\\api-ms-win-crt-math-l1-1-0.dll',
   'BINARY'),
  ('api-ms-win-crt-stdio-l1-1-0.dll',
   'C:\\Users\\prego\\AppData\\Local\\Programs\\MiKTeX '
   '2.9\\miktex\\bin\\x64\\api-ms-win-crt-stdio-l1-1-0.dll',
   'BINARY'),
  ('python36.dll',
   'c:\\users\\prego\\appdata\\local\\programs\\python\\python36\\python36.dll',
   'BINARY'),
  ('ucrtbase.dll',
   'C:\\Users\\prego\\AppData\\Local\\Programs\\MiKTeX '
   '2.9\\miktex\\bin\\x64\\ucrtbase.dll',
   'BINARY'),
  ('api-ms-win-crt-string-l1-1-0.dll',
   'C:\\Users\\prego\\AppData\\Local\\Programs\\MiKTeX '
   '2.9\\miktex\\bin\\x64\\api-ms-win-crt-string-l1-1-0.dll',
   'BINARY'),
  ('api-ms-win-crt-convert-l1-1-0.dll',
   'C:\\Users\\prego\\AppData\\Local\\Programs\\MiKTeX '
   '2.9\\miktex\\bin\\x64\\api-ms-win-crt-convert-l1-1-0.dll',
   'BINARY'),
  ('api-ms-win-crt-time-l1-1-0.dll',
   'C:\\Users\\prego\\AppData\\Local\\Programs\\MiKTeX '
   '2.9\\miktex\\bin\\x64\\api-ms-win-crt-time-l1-1-0.dll',
   'BINARY'),
  ('api-ms-win-crt-conio-l1-1-0.dll',
   'C:\\Users\\prego\\AppData\\Local\\Programs\\MiKTeX '
   '2.9\\miktex\\bin\\x64\\api-ms-win-crt-conio-l1-1-0.dll',
   'BINARY'),
  ('api-ms-win-crt-environment-l1-1-0.dll',
   'C:\\Users\\prego\\AppData\\Local\\Programs\\MiKTeX '
   '2.9\\miktex\\bin\\x64\\api-ms-win-crt-environment-l1-1-0.dll',
   'BINARY'),
  ('api-ms-win-crt-filesystem-l1-1-0.dll',
   'C:\\Users\\prego\\AppData\\Local\\Programs\\MiKTeX '
   '2.9\\miktex\\bin\\x64\\api-ms-win-crt-filesystem-l1-1-0.dll',
   'BINARY'),
  ('api-ms-win-crt-process-l1-1-0.dll',
   'C:\\Users\\prego\\AppData\\Local\\Programs\\MiKTeX '
   '2.9\\miktex\\bin\\x64\\api-ms-win-crt-process-l1-1-0.dll',
   'BINARY'),
  ('api-ms-win-core-string-l1-1-0.dll',
   'C:\\Users\\prego\\AppData\\Local\\Programs\\MiKTeX '
   '2.9\\miktex\\bin\\x64\\api-ms-win-core-string-l1-1-0.dll',
   'BINARY'),
  ('api-ms-win-core-rtlsupport-l1-1-0.dll',
   'C:\\Users\\prego\\AppData\\Local\\Programs\\MiKTeX '
   '2.9\\miktex\\bin\\x64\\api-ms-win-core-rtlsupport-l1-1-0.dll',
   'BINARY'),
  ('api-ms-win-core-timezone-l1-1-0.dll',
   'C:\\Users\\prego\\AppData\\Local\\Programs\\MiKTeX '
   '2.9\\miktex\\bin\\x64\\api-ms-win-core-timezone-l1-1-0.dll',
   'BINARY'),
  ('api-ms-win-core-file-l1-2-0.dll',
   'C:\\Users\\prego\\AppData\\Local\\Programs\\MiKTeX '
   '2.9\\miktex\\bin\\x64\\api-ms-win-core-file-l1-2-0.dll',
   'BINARY'),
  ('api-ms-win-core-localization-l1-2-0.dll',
   'C:\\Users\\prego\\AppData\\Local\\Programs\\MiKTeX '
   '2.9\\miktex\\bin\\x64\\api-ms-win-core-localization-l1-2-0.dll',
   'BINARY'),
  ('api-ms-win-core-interlocked-l1-1-0.dll',
   'C:\\Users\\prego\\AppData\\Local\\Programs\\MiKTeX '
   '2.9\\miktex\\bin\\x64\\api-ms-win-core-interlocked-l1-1-0.dll',
   'BINARY'),
  ('api-ms-win-core-heap-l1-1-0.dll',
   'C:\\Users\\prego\\AppData\\Local\\Programs\\MiKTeX '
   '2.9\\miktex\\bin\\x64\\api-ms-win-core-heap-l1-1-0.dll',
   'BINARY'),
  ('api-ms-win-core-namedpipe-l1-1-0.dll',
   'C:\\Users\\prego\\AppData\\Local\\Programs\\MiKTeX '
   '2.9\\miktex\\bin\\x64\\api-ms-win-core-namedpipe-l1-1-0.dll',
   'BINARY'),
  ('api-ms-win-core-memory-l1-1-0.dll',
   'C:\\Users\\prego\\AppData\\Local\\Programs\\MiKTeX '
   '2.9\\miktex\\bin\\x64\\api-ms-win-core-memory-l1-1-0.dll',
   'BINARY'),
  ('api-ms-win-core-datetime-l1-1-0.dll',
   'C:\\Users\\prego\\AppData\\Local\\Programs\\MiKTeX '
   '2.9\\miktex\\bin\\x64\\api-ms-win-core-datetime-l1-1-0.dll',
   'BINARY'),
  ('api-ms-win-core-processenvironment-l1-1-0.dll',
   'C:\\Users\\prego\\AppData\\Local\\Programs\\MiKTeX '
   '2.9\\miktex\\bin\\x64\\api-ms-win-core-processenvironment-l1-1-0.dll',
   'BINARY'),
  ('api-ms-win-core-synch-l1-2-0.dll',
   'C:\\Users\\prego\\AppData\\Local\\Programs\\MiKTeX '
   '2.9\\miktex\\bin\\x64\\api-ms-win-core-synch-l1-2-0.dll',
   'BINARY'),
  ('api-ms-win-core-util-l1-1-0.dll',
   'C:\\Users\\prego\\AppData\\Local\\Programs\\MiKTeX '
   '2.9\\miktex\\bin\\x64\\api-ms-win-core-util-l1-1-0.dll',
   'BINARY'),
  ('api-ms-win-core-libraryloader-l1-1-0.dll',
   'C:\\Users\\prego\\AppData\\Local\\Programs\\MiKTeX '
   '2.9\\miktex\\bin\\x64\\api-ms-win-core-libraryloader-l1-1-0.dll',
   'BINARY'),
  ('api-ms-win-core-processthreads-l1-1-0.dll',
   'C:\\Users\\prego\\AppData\\Local\\Programs\\MiKTeX '
   '2.9\\miktex\\bin\\x64\\api-ms-win-core-processthreads-l1-1-0.dll',
   'BINARY'),
  ('api-ms-win-core-errorhandling-l1-1-0.dll',
   'C:\\Users\\prego\\AppData\\Local\\Programs\\MiKTeX '
   '2.9\\miktex\\bin\\x64\\api-ms-win-core-errorhandling-l1-1-0.dll',
   'BINARY'),
  ('api-ms-win-core-synch-l1-1-0.dll',
   'C:\\Users\\prego\\AppData\\Local\\Programs\\MiKTeX '
   '2.9\\miktex\\bin\\x64\\api-ms-win-core-synch-l1-1-0.dll',
   'BINARY'),
  ('api-ms-win-core-file-l2-1-0.dll',
   'C:\\Users\\prego\\AppData\\Local\\Programs\\MiKTeX '
   '2.9\\miktex\\bin\\x64\\api-ms-win-core-file-l2-1-0.dll',
   'BINARY'),
  ('api-ms-win-core-handle-l1-1-0.dll',
   'C:\\Users\\prego\\AppData\\Local\\Programs\\MiKTeX '
   '2.9\\miktex\\bin\\x64\\api-ms-win-core-handle-l1-1-0.dll',
   'BINARY'),
  ('api-ms-win-core-console-l1-1-0.dll',
   'C:\\Users\\prego\\AppData\\Local\\Programs\\MiKTeX '
   '2.9\\miktex\\bin\\x64\\api-ms-win-core-console-l1-1-0.dll',
   'BINARY'),
  ('api-ms-win-core-processthreads-l1-1-1.dll',
   'C:\\Users\\prego\\AppData\\Local\\Programs\\MiKTeX '
   '2.9\\miktex\\bin\\x64\\api-ms-win-core-processthreads-l1-1-1.dll',
   'BINARY'),
  ('api-ms-win-core-file-l1-1-0.dll',
   'C:\\Users\\prego\\AppData\\Local\\Programs\\MiKTeX '
   '2.9\\miktex\\bin\\x64\\api-ms-win-core-file-l1-1-0.dll',
   'BINARY'),
  ('api-ms-win-core-profile-l1-1-0.dll',
   'C:\\Users\\prego\\AppData\\Local\\Programs\\MiKTeX '
   '2.9\\miktex\\bin\\x64\\api-ms-win-core-profile-l1-1-0.dll',
   'BINARY'),
  ('api-ms-win-core-sysinfo-l1-1-0.dll',
   'C:\\Users\\prego\\AppData\\Local\\Programs\\MiKTeX '
   '2.9\\miktex\\bin\\x64\\api-ms-win-core-sysinfo-l1-1-0.dll',
   'BINARY'),
  ('api-ms-win-core-debug-l1-1-0.dll',
   'C:\\Users\\prego\\AppData\\Local\\Programs\\MiKTeX '
   '2.9\\miktex\\bin\\x64\\api-ms-win-core-debug-l1-1-0.dll',
   'BINARY'),
  ('PyQt5\\Qt\\plugins\\imageformats\\qjpeg.dll',
   'C:\\users\\prego\\appdata\\local\\programs\\python\\python36\\lib\\site-packages\\PyQt5\\Qt\\plugins\\imageformats\\qjpeg.dll',
   'BINARY'),
  ('PyQt5\\Qt\\plugins\\styles\\qwindowsvistastyle.dll',
   'C:\\users\\prego\\appdata\\local\\programs\\python\\python36\\lib\\site-packages\\PyQt5\\Qt\\plugins\\styles\\qwindowsvistastyle.dll',
   'BINARY'),
  ('PyQt5\\Qt\\plugins\\iconengines\\qsvgicon.dll',
   'C:\\users\\prego\\appdata\\local\\programs\\python\\python36\\lib\\site-packages\\PyQt5\\Qt\\plugins\\iconengines\\qsvgicon.dll',
   'BINARY'),
  ('PyQt5\\Qt\\plugins\\imageformats\\qicns.dll',
   'C:\\users\\prego\\appdata\\local\\programs\\python\\python36\\lib\\site-packages\\PyQt5\\Qt\\plugins\\imageformats\\qicns.dll',
   'BINARY'),
  ('PyQt5\\Qt\\plugins\\imageformats\\qtiff.dll',
   'C:\\users\\prego\\appdata\\local\\programs\\python\\python36\\lib\\site-packages\\PyQt5\\Qt\\plugins\\imageformats\\qtiff.dll',
   'BINARY'),
  ('PyQt5\\Qt\\plugins\\platforms\\qwindows.dll',
   'C:\\users\\prego\\appdata\\local\\programs\\python\\python36\\lib\\site-packages\\PyQt5\\Qt\\plugins\\platforms\\qwindows.dll',
   'BINARY'),
  ('PyQt5\\Qt\\plugins\\platforms\\qminimal.dll',
   'C:\\users\\prego\\appdata\\local\\programs\\python\\python36\\lib\\site-packages\\PyQt5\\Qt\\plugins\\platforms\\qminimal.dll',
   'BINARY'),
  ('PyQt5\\Qt\\plugins\\imageformats\\qico.dll',
   'C:\\users\\prego\\appdata\\local\\programs\\python\\python36\\lib\\site-packages\\PyQt5\\Qt\\plugins\\imageformats\\qico.dll',
   'BINARY'),
  ('PyQt5\\Qt\\plugins\\platforms\\qoffscreen.dll',
   'C:\\users\\prego\\appdata\\local\\programs\\python\\python36\\lib\\site-packages\\PyQt5\\Qt\\plugins\\platforms\\qoffscreen.dll',
   'BINARY'),
  ('PyQt5\\Qt\\plugins\\imageformats\\qtga.dll',
   'C:\\users\\prego\\appdata\\local\\programs\\python\\python36\\lib\\site-packages\\PyQt5\\Qt\\plugins\\imageformats\\qtga.dll',
   'BINARY'),
  ('PyQt5\\Qt\\plugins\\imageformats\\qwbmp.dll',
   'C:\\users\\prego\\appdata\\local\\programs\\python\\python36\\lib\\site-packages\\PyQt5\\Qt\\plugins\\imageformats\\qwbmp.dll',
   'BINARY'),
  ('PyQt5\\Qt\\plugins\\imageformats\\qsvg.dll',
   'C:\\users\\prego\\appdata\\local\\programs\\python\\python36\\lib\\site-packages\\PyQt5\\Qt\\plugins\\imageformats\\qsvg.dll',
   'BINARY'),
  ('PyQt5\\Qt\\plugins\\imageformats\\qwebp.dll',
   'C:\\users\\prego\\appdata\\local\\programs\\python\\python36\\lib\\site-packages\\PyQt5\\Qt\\plugins\\imageformats\\qwebp.dll',
   'BINARY'),
  ('PyQt5\\Qt\\plugins\\imageformats\\qgif.dll',
   'C:\\users\\prego\\appdata\\local\\programs\\python\\python36\\lib\\site-packages\\PyQt5\\Qt\\plugins\\imageformats\\qgif.dll',
   'BINARY'),
  ('_ssl',
   'c:\\users\\prego\\appdata\\local\\programs\\python\\python36\\DLLs\\_ssl.pyd',
   'EXTENSION'),
  ('pyexpat',
   'c:\\users\\prego\\appdata\\local\\programs\\python\\python36\\DLLs\\pyexpat.pyd',
   'EXTENSION'),
  ('_hashlib',
   'c:\\users\\prego\\appdata\\local\\programs\\python\\python36\\DLLs\\_hashlib.pyd',
   'EXTENSION'),
  ('_lzma',
   'c:\\users\\prego\\appdata\\local\\programs\\python\\python36\\DLLs\\_lzma.pyd',
   'EXTENSION'),
  ('_socket',
   'c:\\users\\prego\\appdata\\local\\programs\\python\\python36\\DLLs\\_socket.pyd',
   'EXTENSION'),
  ('unicodedata',
   'c:\\users\\prego\\appdata\\local\\programs\\python\\python36\\DLLs\\unicodedata.pyd',
   'EXTENSION'),
  ('_bz2',
   'c:\\users\\prego\\appdata\\local\\programs\\python\\python36\\DLLs\\_bz2.pyd',
   'EXTENSION'),
  ('select',
   'c:\\users\\prego\\appdata\\local\\programs\\python\\python36\\DLLs\\select.pyd',
   'EXTENSION'),
  ('PyQt5.QtCore',
   'c:\\users\\prego\\appdata\\local\\programs\\python\\python36\\lib\\site-packages\\PyQt5\\QtCore.pyd',
   'EXTENSION'),
  ('PyQt5.QtGui',
   'c:\\users\\prego\\appdata\\local\\programs\\python\\python36\\lib\\site-packages\\PyQt5\\QtGui.pyd',
   'EXTENSION'),
  ('PyQt5.QtWidgets',
   'c:\\users\\prego\\appdata\\local\\programs\\python\\python36\\lib\\site-packages\\PyQt5\\QtWidgets.pyd',
   'EXTENSION'),
  ('PyQt5.sip',
   'c:\\users\\prego\\appdata\\local\\programs\\python\\python36\\lib\\site-packages\\PyQt5\\sip.pyd',
   'EXTENSION'),
  ('sip',
   'c:\\users\\prego\\appdata\\local\\programs\\python\\python36\\lib\\site-packages\\sip.pyd',
   'EXTENSION'),
  ('Qt5Core.dll',
   'c:\\users\\prego\\appdata\\local\\programs\\python\\python36\\lib\\site-packages\\PyQt5\\Qt\\bin\\qt5core.dll',
   'BINARY'),
  ('Qt5Gui.dll',
   'c:\\users\\prego\\appdata\\local\\programs\\python\\python36\\lib\\site-packages\\PyQt5\\Qt\\bin\\qt5gui.dll',
   'BINARY'),
  ('Qt5Widgets.dll',
   'c:\\users\\prego\\appdata\\local\\programs\\python\\python36\\lib\\site-packages\\PyQt5\\Qt\\bin\\qt5widgets.dll',
   'BINARY'),
  ('Qt5Svg.dll',
   'c:\\users\\prego\\appdata\\local\\programs\\python\\python36\\lib\\site-packages\\PyQt5\\Qt\\bin\\qt5svg.dll',
   'BINARY'),
  ('api-ms-win-crt-utility-l1-1-0.dll',
   'C:\\Users\\prego\\AppData\\Local\\Programs\\MiKTeX '
   '2.9\\miktex\\bin\\x64\\api-ms-win-crt-utility-l1-1-0.dll',
   'BINARY'),
  ('python3.dll',
   'c:\\users\\prego\\appdata\\local\\programs\\python\\python36\\python3.dll',
   'BINARY'),
  ('MSVCP140.dll',
   'c:\\users\\prego\\appdata\\local\\programs\\python\\python36\\lib\\site-packages\\PyQt5\\Qt\\bin\\MSVCP140.dll',
   'BINARY'),
  ('api-ms-win-crt-multibyte-l1-1-0.dll',
   'C:\\Users\\prego\\AppData\\Local\\Programs\\MiKTeX '
   '2.9\\miktex\\bin\\x64\\api-ms-win-crt-multibyte-l1-1-0.dll',
   'BINARY'),
  ('base_library.zip',
   'C:\\Users\\prego\\OneDrive\\Dokumenty\\PyCharmProjects\\2018Z_AISD_proj_zesp_gr10\\kod\\PZRSP\\view\\build\\MainWindow\\base_library.zip',
   'DATA'),
  ('PyQt5\\Qt\\translations\\qtbase_cs.qm',
   'C:\\users\\prego\\appdata\\local\\programs\\python\\python36\\lib\\site-packages\\PyQt5\\Qt\\translations\\qtbase_cs.qm',
   'DATA'),
  ('PyQt5\\Qt\\translations\\qtbase_de.qm',
   'C:\\users\\prego\\appdata\\local\\programs\\python\\python36\\lib\\site-packages\\PyQt5\\Qt\\translations\\qtbase_de.qm',
   'DATA'),
  ('PyQt5\\Qt\\translations\\qtbase_fr.qm',
   'C:\\users\\prego\\appdata\\local\\programs\\python\\python36\\lib\\site-packages\\PyQt5\\Qt\\translations\\qtbase_fr.qm',
   'DATA'),
  ('PyQt5\\Qt\\translations\\qtbase_ja.qm',
   'C:\\users\\prego\\appdata\\local\\programs\\python\\python36\\lib\\site-packages\\PyQt5\\Qt\\translations\\qtbase_ja.qm',
   'DATA'),
  ('PyQt5\\Qt\\translations\\qtbase_gd.qm',
   'C:\\users\\prego\\appdata\\local\\programs\\python\\python36\\lib\\site-packages\\PyQt5\\Qt\\translations\\qtbase_gd.qm',
   'DATA'),
  ('PyQt5\\Qt\\translations\\qtbase_es.qm',
   'C:\\users\\prego\\appdata\\local\\programs\\python\\python36\\lib\\site-packages\\PyQt5\\Qt\\translations\\qtbase_es.qm',
   'DATA'),
  ('PyQt5\\Qt\\translations\\qtbase_hu.qm',
   'C:\\users\\prego\\appdata\\local\\programs\\python\\python36\\lib\\site-packages\\PyQt5\\Qt\\translations\\qtbase_hu.qm',
   'DATA'),
  ('PyQt5\\Qt\\translations\\qtbase_pl.qm',
   'C:\\users\\prego\\appdata\\local\\programs\\python\\python36\\lib\\site-packages\\PyQt5\\Qt\\translations\\qtbase_pl.qm',
   'DATA'),
  ('PyQt5\\Qt\\translations\\qtbase_it.qm',
   'C:\\users\\prego\\appdata\\local\\programs\\python\\python36\\lib\\site-packages\\PyQt5\\Qt\\translations\\qtbase_it.qm',
   'DATA'),
  ('PyQt5\\Qt\\translations\\qtbase_lv.qm',
   'C:\\users\\prego\\appdata\\local\\programs\\python\\python36\\lib\\site-packages\\PyQt5\\Qt\\translations\\qtbase_lv.qm',
   'DATA'),
  ('PyQt5\\Qt\\translations\\qtbase_sk.qm',
   'C:\\users\\prego\\appdata\\local\\programs\\python\\python36\\lib\\site-packages\\PyQt5\\Qt\\translations\\qtbase_sk.qm',
   'DATA'),
  ('PyQt5\\Qt\\translations\\qtbase_ca.qm',
   'C:\\users\\prego\\appdata\\local\\programs\\python\\python36\\lib\\site-packages\\PyQt5\\Qt\\translations\\qtbase_ca.qm',
   'DATA'),
  ('PyQt5\\Qt\\translations\\qtbase_bg.qm',
   'C:\\users\\prego\\appdata\\local\\programs\\python\\python36\\lib\\site-packages\\PyQt5\\Qt\\translations\\qtbase_bg.qm',
   'DATA'),
  ('PyQt5\\Qt\\translations\\qtbase_ko.qm',
   'C:\\users\\prego\\appdata\\local\\programs\\python\\python36\\lib\\site-packages\\PyQt5\\Qt\\translations\\qtbase_ko.qm',
   'DATA'),
  ('PyQt5\\Qt\\translations\\qtbase_en.qm',
   'C:\\users\\prego\\appdata\\local\\programs\\python\\python36\\lib\\site-packages\\PyQt5\\Qt\\translations\\qtbase_en.qm',
   'DATA'),
  ('PyQt5\\Qt\\translations\\qtbase_he.qm',
   'C:\\users\\prego\\appdata\\local\\programs\\python\\python36\\lib\\site-packages\\PyQt5\\Qt\\translations\\qtbase_he.qm',
   'DATA'),
  ('PyQt5\\Qt\\translations\\qtbase_uk.qm',
   'C:\\users\\prego\\appdata\\local\\programs\\python\\python36\\lib\\site-packages\\PyQt5\\Qt\\translations\\qtbase_uk.qm',
   'DATA'),
  ('PyQt5\\Qt\\bin\\qt.conf',
   'C:\\users\\prego\\appdata\\local\\programs\\python\\python36\\lib\\site-packages\\PyQt5\\Qt\\bin\\qt.conf',
   'DATA'),
  ('PyQt5\\Qt\\translations\\qtbase_ru.qm',
   'C:\\users\\prego\\appdata\\local\\programs\\python\\python36\\lib\\site-packages\\PyQt5\\Qt\\translations\\qtbase_ru.qm',
   'DATA'),
  ('PyQt5\\Qt\\translations\\qtbase_ar.qm',
   'C:\\users\\prego\\appdata\\local\\programs\\python\\python36\\lib\\site-packages\\PyQt5\\Qt\\translations\\qtbase_ar.qm',
   'DATA'),
  ('PyQt5\\Qt\\translations\\qtbase_fi.qm',
   'C:\\users\\prego\\appdata\\local\\programs\\python\\python36\\lib\\site-packages\\PyQt5\\Qt\\translations\\qtbase_fi.qm',
   'DATA'),
  ('PyQt5\\Qt\\translations\\qtbase_da.qm',
   'C:\\users\\prego\\appdata\\local\\programs\\python\\python36\\lib\\site-packages\\PyQt5\\Qt\\translations\\qtbase_da.qm',
   'DATA')],)
