('C:\\Users\\prego\\OneDrive\\Dokumenty\\PyCharmProjects\\2018Z_AISD_proj_zesp_gr10\\kod\\PZRSP\\view\\build\\MainWindow\\PKG-00.pkg',
 {'BINARY': 1,
  'DATA': 1,
  'EXECUTABLE': 1,
  'EXTENSION': 1,
  'PYMODULE': 1,
  'PYSOURCE': 1,
  'PYZ': 0},
 [('PYZ-00.pyz',
   'C:\\Users\\prego\\OneDrive\\Dokumenty\\PyCharmProjects\\2018Z_AISD_proj_zesp_gr10\\kod\\PZRSP\\view\\build\\MainWindow\\PYZ-00.pyz',
   'PYZ'),
  ('struct',
   'c:\\users\\prego\\appdata\\local\\programs\\python\\python36\\lib\\struct.pyo',
   'PYMODULE'),
  ('pyimod01_os_path',
   'c:\\users\\prego\\appdata\\local\\programs\\python\\python36\\lib\\site-packages\\PyInstaller\\loader\\pyimod01_os_path.pyc',
   'PYMODULE'),
  ('pyimod02_archive',
   'c:\\users\\prego\\appdata\\local\\programs\\python\\python36\\lib\\site-packages\\PyInstaller\\loader\\pyimod02_archive.pyc',
   'PYMODULE'),
  ('pyimod03_importers',
   'c:\\users\\prego\\appdata\\local\\programs\\python\\python36\\lib\\site-packages\\PyInstaller\\loader\\pyimod03_importers.pyc',
   'PYMODULE'),
  ('pyiboot01_bootstrap',
   'c:\\users\\prego\\appdata\\local\\programs\\python\\python36\\lib\\site-packages\\PyInstaller\\loader\\pyiboot01_bootstrap.py',
   'PYSOURCE'),
  ('pyi_rth_qt5',
   'c:\\users\\prego\\appdata\\local\\programs\\python\\python36\\lib\\site-packages\\PyInstaller\\loader\\rthooks\\pyi_rth_qt5.py',
   'PYSOURCE'),
  ('MainWindow',
   'C:\\Users\\prego\\OneDrive\\Dokumenty\\PyCharmProjects\\2018Z_AISD_proj_zesp_gr10\\kod\\PZRSP\\view\\MainWindow.py',
   'PYSOURCE'),
  ('MainWindow.exe.manifest',
   'C:\\Users\\prego\\OneDrive\\Dokumenty\\PyCharmProjects\\2018Z_AISD_proj_zesp_gr10\\kod\\PZRSP\\view\\build\\MainWindow\\MainWindow.exe.manifest',
   'BINARY')],
 True,
 False,
 False)
