(['C:\\Users\\prego\\OneDrive\\Dokumenty\\PyCharmProjects\\2018Z_AISD_proj_zesp_gr10\\kod\\PZRSP\\view\\MainWindow.py'],
 ['C:\\Users\\prego\\OneDrive\\Dokumenty\\PyCharmProjects\\2018Z_AISD_proj_zesp_gr10\\kod\\PZRSP',
  'C:\\Users\\prego\\OneDrive\\Dokumenty\\PyCharmProjects\\2018Z_AISD_proj_zesp_gr10\\kod\\PZRSP\\view'],
 ['codecs'],
 [],
 [],
 [],
 False,
 False,
 '3.6.7 (v3.6.7:6ec5cf24b7, Oct 20 2018, 13:35:33) [MSC v.1900 64 bit (AMD64)]',
 [('pyi_rth_qt5',
   'c:\\users\\prego\\appdata\\local\\programs\\python\\python36\\lib\\site-packages\\PyInstaller\\loader\\rthooks\\pyi_rth_qt5.py',
   'PYSOURCE'),
  ('MainWindow',
   'C:\\Users\\prego\\OneDrive\\Dokumenty\\PyCharmProjects\\2018Z_AISD_proj_zesp_gr10\\kod\\PZRSP\\view\\MainWindow.py',
   'PYSOURCE')],
 [('ntpath',
   'c:\\users\\prego\\appdata\\local\\programs\\python\\python36\\lib\\ntpath.py',
   'PYMODULE'),
  ('_strptime',
   'c:\\users\\prego\\appdata\\local\\programs\\python\\python36\\lib\\_strptime.py',
   'PYMODULE'),
  ('datetime',
   'c:\\users\\prego\\appdata\\local\\programs\\python\\python36\\lib\\datetime.py',
   'PYMODULE'),
  ('stringprep',
   'c:\\users\\prego\\appdata\\local\\programs\\python\\python36\\lib\\stringprep.py',
   'PYMODULE'),
  ('fnmatch',
   'c:\\users\\prego\\appdata\\local\\programs\\python\\python36\\lib\\fnmatch.py',
   'PYMODULE'),
  ('struct',
   'c:\\users\\prego\\appdata\\local\\programs\\python\\python36\\lib\\struct.py',
   'PYMODULE'),
  ('_compat_pickle',
   'c:\\users\\prego\\appdata\\local\\programs\\python\\python36\\lib\\_compat_pickle.py',
   'PYMODULE'),
  ('__future__',
   'c:\\users\\prego\\appdata\\local\\programs\\python\\python36\\lib\\__future__.py',
   'PYMODULE'),
  ('difflib',
   'c:\\users\\prego\\appdata\\local\\programs\\python\\python36\\lib\\difflib.py',
   'PYMODULE'),
  ('ast',
   'c:\\users\\prego\\appdata\\local\\programs\\python\\python36\\lib\\ast.py',
   'PYMODULE'),
  ('inspect',
   'c:\\users\\prego\\appdata\\local\\programs\\python\\python36\\lib\\inspect.py',
   'PYMODULE'),
  ('cmd',
   'c:\\users\\prego\\appdata\\local\\programs\\python\\python36\\lib\\cmd.py',
   'PYMODULE'),
  ('bdb',
   'c:\\users\\prego\\appdata\\local\\programs\\python\\python36\\lib\\bdb.py',
   'PYMODULE'),
  ('opcode',
   'c:\\users\\prego\\appdata\\local\\programs\\python\\python36\\lib\\opcode.py',
   'PYMODULE'),
  ('dis',
   'c:\\users\\prego\\appdata\\local\\programs\\python\\python36\\lib\\dis.py',
   'PYMODULE'),
  ('codeop',
   'c:\\users\\prego\\appdata\\local\\programs\\python\\python36\\lib\\codeop.py',
   'PYMODULE'),
  ('code',
   'c:\\users\\prego\\appdata\\local\\programs\\python\\python36\\lib\\code.py',
   'PYMODULE'),
  ('glob',
   'c:\\users\\prego\\appdata\\local\\programs\\python\\python36\\lib\\glob.py',
   'PYMODULE'),
  ('shlex',
   'c:\\users\\prego\\appdata\\local\\programs\\python\\python36\\lib\\shlex.py',
   'PYMODULE'),
  ('importlib._bootstrap',
   'c:\\users\\prego\\appdata\\local\\programs\\python\\python36\\lib\\importlib\\_bootstrap.py',
   'PYMODULE'),
  ('importlib._bootstrap_external',
   'c:\\users\\prego\\appdata\\local\\programs\\python\\python36\\lib\\importlib\\_bootstrap_external.py',
   'PYMODULE'),
  ('importlib.machinery',
   'c:\\users\\prego\\appdata\\local\\programs\\python\\python36\\lib\\importlib\\machinery.py',
   'PYMODULE'),
  ('importlib.util',
   'c:\\users\\prego\\appdata\\local\\programs\\python\\python36\\lib\\importlib\\util.py',
   'PYMODULE'),
  ('importlib.abc',
   'c:\\users\\prego\\appdata\\local\\programs\\python\\python36\\lib\\importlib\\abc.py',
   'PYMODULE'),
  ('importlib',
   'c:\\users\\prego\\appdata\\local\\programs\\python\\python36\\lib\\importlib\\__init__.py',
   'PYMODULE'),
  ('pkgutil',
   'c:\\users\\prego\\appdata\\local\\programs\\python\\python36\\lib\\pkgutil.py',
   'PYMODULE'),
  ('xml',
   'c:\\users\\prego\\appdata\\local\\programs\\python\\python36\\lib\\xml\\__init__.py',
   'PYMODULE'),
  ('xml.sax.expatreader',
   'c:\\users\\prego\\appdata\\local\\programs\\python\\python36\\lib\\xml\\sax\\expatreader.py',
   'PYMODULE'),
  ('xml.sax.saxutils',
   'c:\\users\\prego\\appdata\\local\\programs\\python\\python36\\lib\\xml\\sax\\saxutils.py',
   'PYMODULE'),
  ('urllib.request',
   'c:\\users\\prego\\appdata\\local\\programs\\python\\python36\\lib\\urllib\\request.py',
   'PYMODULE'),
  ('getpass',
   'c:\\users\\prego\\appdata\\local\\programs\\python\\python36\\lib\\getpass.py',
   'PYMODULE'),
  ('nturl2path',
   'c:\\users\\prego\\appdata\\local\\programs\\python\\python36\\lib\\nturl2path.py',
   'PYMODULE'),
  ('ftplib',
   'c:\\users\\prego\\appdata\\local\\programs\\python\\python36\\lib\\ftplib.py',
   'PYMODULE'),
  ('netrc',
   'c:\\users\\prego\\appdata\\local\\programs\\python\\python36\\lib\\netrc.py',
   'PYMODULE'),
  ('http.cookiejar',
   'c:\\users\\prego\\appdata\\local\\programs\\python\\python36\\lib\\http\\cookiejar.py',
   'PYMODULE'),
  ('urllib.response',
   'c:\\users\\prego\\appdata\\local\\programs\\python\\python36\\lib\\urllib\\response.py',
   'PYMODULE'),
  ('urllib.error',
   'c:\\users\\prego\\appdata\\local\\programs\\python\\python36\\lib\\urllib\\error.py',
   'PYMODULE'),
  ('xml.sax',
   'c:\\users\\prego\\appdata\\local\\programs\\python\\python36\\lib\\xml\\sax\\__init__.py',
   'PYMODULE'),
  ('xml.sax.handler',
   'c:\\users\\prego\\appdata\\local\\programs\\python\\python36\\lib\\xml\\sax\\handler.py',
   'PYMODULE'),
  ('xml.sax._exceptions',
   'c:\\users\\prego\\appdata\\local\\programs\\python\\python36\\lib\\xml\\sax\\_exceptions.py',
   'PYMODULE'),
  ('xml.sax.xmlreader',
   'c:\\users\\prego\\appdata\\local\\programs\\python\\python36\\lib\\xml\\sax\\xmlreader.py',
   'PYMODULE'),
  ('xml.parsers',
   'c:\\users\\prego\\appdata\\local\\programs\\python\\python36\\lib\\xml\\parsers\\__init__.py',
   'PYMODULE'),
  ('xml.parsers.expat',
   'c:\\users\\prego\\appdata\\local\\programs\\python\\python36\\lib\\xml\\parsers\\expat.py',
   'PYMODULE'),
  ('plistlib',
   'c:\\users\\prego\\appdata\\local\\programs\\python\\python36\\lib\\plistlib.py',
   'PYMODULE'),
  ('platform',
   'c:\\users\\prego\\appdata\\local\\programs\\python\\python36\\lib\\platform.py',
   'PYMODULE'),
  ('token',
   'c:\\users\\prego\\appdata\\local\\programs\\python\\python36\\lib\\token.py',
   'PYMODULE'),
  ('tokenize',
   'c:\\users\\prego\\appdata\\local\\programs\\python\\python36\\lib\\tokenize.py',
   'PYMODULE'),
  ('urllib.parse',
   'c:\\users\\prego\\appdata\\local\\programs\\python\\python36\\lib\\urllib\\parse.py',
   'PYMODULE'),
  ('tempfile',
   'c:\\users\\prego\\appdata\\local\\programs\\python\\python36\\lib\\tempfile.py',
   'PYMODULE'),
  ('tty',
   'c:\\users\\prego\\appdata\\local\\programs\\python\\python36\\lib\\tty.py',
   'PYMODULE'),
  ('pydoc_data',
   'c:\\users\\prego\\appdata\\local\\programs\\python\\python36\\lib\\pydoc_data\\__init__.py',
   'PYMODULE'),
  ('pydoc_data.topics',
   'c:\\users\\prego\\appdata\\local\\programs\\python\\python36\\lib\\pydoc_data\\topics.py',
   'PYMODULE'),
  ('html.entities',
   'c:\\users\\prego\\appdata\\local\\programs\\python\\python36\\lib\\html\\entities.py',
   'PYMODULE'),
  ('html',
   'c:\\users\\prego\\appdata\\local\\programs\\python\\python36\\lib\\html\\__init__.py',
   'PYMODULE'),
  ('ipaddress',
   'c:\\users\\prego\\appdata\\local\\programs\\python\\python36\\lib\\ipaddress.py',
   'PYMODULE'),
  ('ssl',
   'c:\\users\\prego\\appdata\\local\\programs\\python\\python36\\lib\\ssl.py',
   'PYMODULE'),
  ('http.client',
   'c:\\users\\prego\\appdata\\local\\programs\\python\\python36\\lib\\http\\client.py',
   'PYMODULE'),
  ('mimetypes',
   'c:\\users\\prego\\appdata\\local\\programs\\python\\python36\\lib\\mimetypes.py',
   'PYMODULE'),
  ('socketserver',
   'c:\\users\\prego\\appdata\\local\\programs\\python\\python36\\lib\\socketserver.py',
   'PYMODULE'),
  ('http',
   'c:\\users\\prego\\appdata\\local\\programs\\python\\python36\\lib\\http\\__init__.py',
   'PYMODULE'),
  ('http.server',
   'c:\\users\\prego\\appdata\\local\\programs\\python\\python36\\lib\\http\\server.py',
   'PYMODULE'),
  ('optparse',
   'c:\\users\\prego\\appdata\\local\\programs\\python\\python36\\lib\\optparse.py',
   'PYMODULE'),
  ('uu',
   'c:\\users\\prego\\appdata\\local\\programs\\python\\python36\\lib\\uu.py',
   'PYMODULE'),
  ('quopri',
   'c:\\users\\prego\\appdata\\local\\programs\\python\\python36\\lib\\quopri.py',
   'PYMODULE'),
  ('email.feedparser',
   'c:\\users\\prego\\appdata\\local\\programs\\python\\python36\\lib\\email\\feedparser.py',
   'PYMODULE'),
  ('email.parser',
   'c:\\users\\prego\\appdata\\local\\programs\\python\\python36\\lib\\email\\parser.py',
   'PYMODULE'),
  ('email',
   'c:\\users\\prego\\appdata\\local\\programs\\python\\python36\\lib\\email\\__init__.py',
   'PYMODULE'),
  ('calendar',
   'c:\\users\\prego\\appdata\\local\\programs\\python\\python36\\lib\\calendar.py',
   'PYMODULE'),
  ('email._parseaddr',
   'c:\\users\\prego\\appdata\\local\\programs\\python\\python36\\lib\\email\\_parseaddr.py',
   'PYMODULE'),
  ('email.utils',
   'c:\\users\\prego\\appdata\\local\\programs\\python\\python36\\lib\\email\\utils.py',
   'PYMODULE'),
  ('email.errors',
   'c:\\users\\prego\\appdata\\local\\programs\\python\\python36\\lib\\email\\errors.py',
   'PYMODULE'),
  ('email.header',
   'c:\\users\\prego\\appdata\\local\\programs\\python\\python36\\lib\\email\\header.py',
   'PYMODULE'),
  ('email._policybase',
   'c:\\users\\prego\\appdata\\local\\programs\\python\\python36\\lib\\email\\_policybase.py',
   'PYMODULE'),
  ('email.base64mime',
   'c:\\users\\prego\\appdata\\local\\programs\\python\\python36\\lib\\email\\base64mime.py',
   'PYMODULE'),
  ('email.encoders',
   'c:\\users\\prego\\appdata\\local\\programs\\python\\python36\\lib\\email\\encoders.py',
   'PYMODULE'),
  ('email.charset',
   'c:\\users\\prego\\appdata\\local\\programs\\python\\python36\\lib\\email\\charset.py',
   'PYMODULE'),
  ('base64',
   'c:\\users\\prego\\appdata\\local\\programs\\python\\python36\\lib\\base64.py',
   'PYMODULE'),
  ('email._encoded_words',
   'c:\\users\\prego\\appdata\\local\\programs\\python\\python36\\lib\\email\\_encoded_words.py',
   'PYMODULE'),
  ('hashlib',
   'c:\\users\\prego\\appdata\\local\\programs\\python\\python36\\lib\\hashlib.py',
   'PYMODULE'),
  ('bisect',
   'c:\\users\\prego\\appdata\\local\\programs\\python\\python36\\lib\\bisect.py',
   'PYMODULE'),
  ('random',
   'c:\\users\\prego\\appdata\\local\\programs\\python\\python36\\lib\\random.py',
   'PYMODULE'),
  ('email.generator',
   'c:\\users\\prego\\appdata\\local\\programs\\python\\python36\\lib\\email\\generator.py',
   'PYMODULE'),
  ('email.iterators',
   'c:\\users\\prego\\appdata\\local\\programs\\python\\python36\\lib\\email\\iterators.py',
   'PYMODULE'),
  ('urllib',
   'c:\\users\\prego\\appdata\\local\\programs\\python\\python36\\lib\\urllib\\__init__.py',
   'PYMODULE'),
  ('email._header_value_parser',
   'c:\\users\\prego\\appdata\\local\\programs\\python\\python36\\lib\\email\\_header_value_parser.py',
   'PYMODULE'),
  ('email.headerregistry',
   'c:\\users\\prego\\appdata\\local\\programs\\python\\python36\\lib\\email\\headerregistry.py',
   'PYMODULE'),
  ('email.quoprimime',
   'c:\\users\\prego\\appdata\\local\\programs\\python\\python36\\lib\\email\\quoprimime.py',
   'PYMODULE'),
  ('email.contentmanager',
   'c:\\users\\prego\\appdata\\local\\programs\\python\\python36\\lib\\email\\contentmanager.py',
   'PYMODULE'),
  ('email.policy',
   'c:\\users\\prego\\appdata\\local\\programs\\python\\python36\\lib\\email\\policy.py',
   'PYMODULE'),
  ('email.message',
   'c:\\users\\prego\\appdata\\local\\programs\\python\\python36\\lib\\email\\message.py',
   'PYMODULE'),
  ('bz2',
   'c:\\users\\prego\\appdata\\local\\programs\\python\\python36\\lib\\bz2.py',
   'PYMODULE'),
  ('lzma',
   'c:\\users\\prego\\appdata\\local\\programs\\python\\python36\\lib\\lzma.py',
   'PYMODULE'),
  ('_compression',
   'c:\\users\\prego\\appdata\\local\\programs\\python\\python36\\lib\\_compression.py',
   'PYMODULE'),
  ('gzip',
   'c:\\users\\prego\\appdata\\local\\programs\\python\\python36\\lib\\gzip.py',
   'PYMODULE'),
  ('tarfile',
   'c:\\users\\prego\\appdata\\local\\programs\\python\\python36\\lib\\tarfile.py',
   'PYMODULE'),
  ('py_compile',
   'c:\\users\\prego\\appdata\\local\\programs\\python\\python36\\lib\\py_compile.py',
   'PYMODULE'),
  ('zipfile',
   'c:\\users\\prego\\appdata\\local\\programs\\python\\python36\\lib\\zipfile.py',
   'PYMODULE'),
  ('shutil',
   'c:\\users\\prego\\appdata\\local\\programs\\python\\python36\\lib\\shutil.py',
   'PYMODULE'),
  ('socket',
   'c:\\users\\prego\\appdata\\local\\programs\\python\\python36\\lib\\socket.py',
   'PYMODULE'),
  ('webbrowser',
   'c:\\users\\prego\\appdata\\local\\programs\\python\\python36\\lib\\webbrowser.py',
   'PYMODULE'),
  ('pydoc',
   'c:\\users\\prego\\appdata\\local\\programs\\python\\python36\\lib\\pydoc.py',
   'PYMODULE'),
  ('getopt',
   'c:\\users\\prego\\appdata\\local\\programs\\python\\python36\\lib\\getopt.py',
   'PYMODULE'),
  ('pdb',
   'c:\\users\\prego\\appdata\\local\\programs\\python\\python36\\lib\\pdb.py',
   'PYMODULE'),
  ('unittest.util',
   'c:\\users\\prego\\appdata\\local\\programs\\python\\python36\\lib\\unittest\\util.py',
   'PYMODULE'),
  ('unittest.result',
   'c:\\users\\prego\\appdata\\local\\programs\\python\\python36\\lib\\unittest\\result.py',
   'PYMODULE'),
  ('string',
   'c:\\users\\prego\\appdata\\local\\programs\\python\\python36\\lib\\string.py',
   'PYMODULE'),
  ('logging',
   'c:\\users\\prego\\appdata\\local\\programs\\python\\python36\\lib\\logging\\__init__.py',
   'PYMODULE'),
  ('unittest.case',
   'c:\\users\\prego\\appdata\\local\\programs\\python\\python36\\lib\\unittest\\case.py',
   'PYMODULE'),
  ('unittest.suite',
   'c:\\users\\prego\\appdata\\local\\programs\\python\\python36\\lib\\unittest\\suite.py',
   'PYMODULE'),
  ('unittest.loader',
   'c:\\users\\prego\\appdata\\local\\programs\\python\\python36\\lib\\unittest\\loader.py',
   'PYMODULE'),
  ('unittest.runner',
   'c:\\users\\prego\\appdata\\local\\programs\\python\\python36\\lib\\unittest\\runner.py',
   'PYMODULE'),
  ('unittest.main',
   'c:\\users\\prego\\appdata\\local\\programs\\python\\python36\\lib\\unittest\\main.py',
   'PYMODULE'),
  ('unittest.signals',
   'c:\\users\\prego\\appdata\\local\\programs\\python\\python36\\lib\\unittest\\signals.py',
   'PYMODULE'),
  ('unittest',
   'c:\\users\\prego\\appdata\\local\\programs\\python\\python36\\lib\\unittest\\__init__.py',
   'PYMODULE'),
  ('doctest',
   'c:\\users\\prego\\appdata\\local\\programs\\python\\python36\\lib\\doctest.py',
   'PYMODULE'),
  ('stat',
   'c:\\users\\prego\\appdata\\local\\programs\\python\\python36\\lib\\stat.py',
   'PYMODULE'),
  ('genericpath',
   'c:\\users\\prego\\appdata\\local\\programs\\python\\python36\\lib\\genericpath.py',
   'PYMODULE'),
  ('posixpath',
   'c:\\users\\prego\\appdata\\local\\programs\\python\\python36\\lib\\posixpath.py',
   'PYMODULE'),
  ('signal',
   'c:\\users\\prego\\appdata\\local\\programs\\python\\python36\\lib\\signal.py',
   'PYMODULE'),
  ('contextlib',
   'c:\\users\\prego\\appdata\\local\\programs\\python\\python36\\lib\\contextlib.py',
   'PYMODULE'),
  ('_threading_local',
   'c:\\users\\prego\\appdata\\local\\programs\\python\\python36\\lib\\_threading_local.py',
   'PYMODULE'),
  ('threading',
   'c:\\users\\prego\\appdata\\local\\programs\\python\\python36\\lib\\threading.py',
   'PYMODULE'),
  ('selectors',
   'c:\\users\\prego\\appdata\\local\\programs\\python\\python36\\lib\\selectors.py',
   'PYMODULE'),
  ('dummy_threading',
   'c:\\users\\prego\\appdata\\local\\programs\\python\\python36\\lib\\dummy_threading.py',
   'PYMODULE'),
  ('subprocess',
   'c:\\users\\prego\\appdata\\local\\programs\\python\\python36\\lib\\subprocess.py',
   'PYMODULE'),
  ('os',
   'c:\\users\\prego\\appdata\\local\\programs\\python\\python36\\lib\\os.py',
   'PYMODULE'),
  ('textwrap',
   'c:\\users\\prego\\appdata\\local\\programs\\python\\python36\\lib\\textwrap.py',
   'PYMODULE'),
  ('gettext',
   'c:\\users\\prego\\appdata\\local\\programs\\python\\python36\\lib\\gettext.py',
   'PYMODULE'),
  ('argparse',
   'c:\\users\\prego\\appdata\\local\\programs\\python\\python36\\lib\\argparse.py',
   'PYMODULE'),
  ('pprint',
   'c:\\users\\prego\\appdata\\local\\programs\\python\\python36\\lib\\pprint.py',
   'PYMODULE'),
  ('pickle',
   'c:\\users\\prego\\appdata\\local\\programs\\python\\python36\\lib\\pickle.py',
   'PYMODULE'),
  ('tracemalloc',
   'c:\\users\\prego\\appdata\\local\\programs\\python\\python36\\lib\\tracemalloc.py',
   'PYMODULE'),
  ('_dummy_thread',
   'c:\\users\\prego\\appdata\\local\\programs\\python\\python36\\lib\\_dummy_thread.py',
   'PYMODULE'),
  ('copy',
   'c:\\users\\prego\\appdata\\local\\programs\\python\\python36\\lib\\copy.py',
   'PYMODULE'),
  ('logic.FunctionalWindows',
   'C:\\Users\\prego\\OneDrive\\Dokumenty\\PyCharmProjects\\2018Z_AISD_proj_zesp_gr10\\kod\\PZRSP\\logic\\FunctionalWindows.py',
   'PYMODULE'),
  ('logic.VoronoiDiagram',
   'C:\\Users\\prego\\OneDrive\\Dokumenty\\PyCharmProjects\\2018Z_AISD_proj_zesp_gr10\\kod\\PZRSP\\logic\\VoronoiDiagram.py',
   'PYMODULE'),
  ('logic.FileValidation',
   'C:\\Users\\prego\\OneDrive\\Dokumenty\\PyCharmProjects\\2018Z_AISD_proj_zesp_gr10\\kod\\PZRSP\\logic\\FileValidation.py',
   'PYMODULE'),
  ('logic',
   'C:\\Users\\prego\\OneDrive\\Dokumenty\\PyCharmProjects\\2018Z_AISD_proj_zesp_gr10\\kod\\PZRSP\\logic\\__init__.py',
   'PYMODULE'),
  ('view.ViewOfMap',
   'C:\\Users\\prego\\OneDrive\\Dokumenty\\PyCharmProjects\\2018Z_AISD_proj_zesp_gr10\\kod\\PZRSP\\view\\ViewOfMap.py',
   'PYMODULE'),
  ('view',
   'C:\\Users\\prego\\OneDrive\\Dokumenty\\PyCharmProjects\\2018Z_AISD_proj_zesp_gr10\\kod\\PZRSP\\view\\__init__.py',
   'PYMODULE'),
  ('PyQt5',
   'c:\\users\\prego\\appdata\\local\\programs\\python\\python36\\lib\\site-packages\\PyQt5\\__init__.py',
   'PYMODULE')],
 [('api-ms-win-crt-math-l1-1-0.dll',
   'C:\\Users\\prego\\AppData\\Local\\Programs\\MiKTeX '
   '2.9\\miktex\\bin\\x64\\api-ms-win-crt-math-l1-1-0.dll',
   'BINARY'),
  ('api-ms-win-crt-runtime-l1-1-0.dll',
   'C:\\Users\\prego\\AppData\\Local\\Programs\\MiKTeX '
   '2.9\\miktex\\bin\\x64\\api-ms-win-crt-runtime-l1-1-0.dll',
   'BINARY'),
  ('VCRUNTIME140.dll',
   'c:\\users\\prego\\appdata\\local\\programs\\python\\python36\\VCRUNTIME140.dll',
   'BINARY'),
  ('api-ms-win-crt-heap-l1-1-0.dll',
   'C:\\Users\\prego\\AppData\\Local\\Programs\\MiKTeX '
   '2.9\\miktex\\bin\\x64\\api-ms-win-crt-heap-l1-1-0.dll',
   'BINARY'),
  ('api-ms-win-crt-stdio-l1-1-0.dll',
   'C:\\Users\\prego\\AppData\\Local\\Programs\\MiKTeX '
   '2.9\\miktex\\bin\\x64\\api-ms-win-crt-stdio-l1-1-0.dll',
   'BINARY'),
  ('api-ms-win-crt-locale-l1-1-0.dll',
   'C:\\Users\\prego\\AppData\\Local\\Programs\\MiKTeX '
   '2.9\\miktex\\bin\\x64\\api-ms-win-crt-locale-l1-1-0.dll',
   'BINARY'),
  ('python36.dll',
   'c:\\users\\prego\\appdata\\local\\programs\\python\\python36\\python36.dll',
   'BINARY'),
  ('ucrtbase.dll',
   'C:\\Users\\prego\\AppData\\Local\\Programs\\MiKTeX '
   '2.9\\miktex\\bin\\x64\\ucrtbase.dll',
   'BINARY'),
  ('api-ms-win-crt-convert-l1-1-0.dll',
   'C:\\Users\\prego\\AppData\\Local\\Programs\\MiKTeX '
   '2.9\\miktex\\bin\\x64\\api-ms-win-crt-convert-l1-1-0.dll',
   'BINARY'),
  ('api-ms-win-crt-string-l1-1-0.dll',
   'C:\\Users\\prego\\AppData\\Local\\Programs\\MiKTeX '
   '2.9\\miktex\\bin\\x64\\api-ms-win-crt-string-l1-1-0.dll',
   'BINARY'),
  ('api-ms-win-crt-time-l1-1-0.dll',
   'C:\\Users\\prego\\AppData\\Local\\Programs\\MiKTeX '
   '2.9\\miktex\\bin\\x64\\api-ms-win-crt-time-l1-1-0.dll',
   'BINARY'),
  ('api-ms-win-crt-environment-l1-1-0.dll',
   'C:\\Users\\prego\\AppData\\Local\\Programs\\MiKTeX '
   '2.9\\miktex\\bin\\x64\\api-ms-win-crt-environment-l1-1-0.dll',
   'BINARY'),
  ('api-ms-win-crt-process-l1-1-0.dll',
   'C:\\Users\\prego\\AppData\\Local\\Programs\\MiKTeX '
   '2.9\\miktex\\bin\\x64\\api-ms-win-crt-process-l1-1-0.dll',
   'BINARY'),
  ('api-ms-win-crt-filesystem-l1-1-0.dll',
   'C:\\Users\\prego\\AppData\\Local\\Programs\\MiKTeX '
   '2.9\\miktex\\bin\\x64\\api-ms-win-crt-filesystem-l1-1-0.dll',
   'BINARY'),
  ('api-ms-win-crt-conio-l1-1-0.dll',
   'C:\\Users\\prego\\AppData\\Local\\Programs\\MiKTeX '
   '2.9\\miktex\\bin\\x64\\api-ms-win-crt-conio-l1-1-0.dll',
   'BINARY'),
  ('api-ms-win-core-util-l1-1-0.dll',
   'C:\\Users\\prego\\AppData\\Local\\Programs\\MiKTeX '
   '2.9\\miktex\\bin\\x64\\api-ms-win-core-util-l1-1-0.dll',
   'BINARY'),
  ('api-ms-win-core-processenvironment-l1-1-0.dll',
   'C:\\Users\\prego\\AppData\\Local\\Programs\\MiKTeX '
   '2.9\\miktex\\bin\\x64\\api-ms-win-core-processenvironment-l1-1-0.dll',
   'BINARY'),
  ('api-ms-win-core-file-l1-1-0.dll',
   'C:\\Users\\prego\\AppData\\Local\\Programs\\MiKTeX '
   '2.9\\miktex\\bin\\x64\\api-ms-win-core-file-l1-1-0.dll',
   'BINARY'),
  ('api-ms-win-core-datetime-l1-1-0.dll',
   'C:\\Users\\prego\\AppData\\Local\\Programs\\MiKTeX '
   '2.9\\miktex\\bin\\x64\\api-ms-win-core-datetime-l1-1-0.dll',
   'BINARY'),
  ('api-ms-win-core-profile-l1-1-0.dll',
   'C:\\Users\\prego\\AppData\\Local\\Programs\\MiKTeX '
   '2.9\\miktex\\bin\\x64\\api-ms-win-core-profile-l1-1-0.dll',
   'BINARY'),
  ('api-ms-win-core-console-l1-1-0.dll',
   'C:\\Users\\prego\\AppData\\Local\\Programs\\MiKTeX '
   '2.9\\miktex\\bin\\x64\\api-ms-win-core-console-l1-1-0.dll',
   'BINARY'),
  ('api-ms-win-core-errorhandling-l1-1-0.dll',
   'C:\\Users\\prego\\AppData\\Local\\Programs\\MiKTeX '
   '2.9\\miktex\\bin\\x64\\api-ms-win-core-errorhandling-l1-1-0.dll',
   'BINARY'),
  ('api-ms-win-core-heap-l1-1-0.dll',
   'C:\\Users\\prego\\AppData\\Local\\Programs\\MiKTeX '
   '2.9\\miktex\\bin\\x64\\api-ms-win-core-heap-l1-1-0.dll',
   'BINARY'),
  ('api-ms-win-core-handle-l1-1-0.dll',
   'C:\\Users\\prego\\AppData\\Local\\Programs\\MiKTeX '
   '2.9\\miktex\\bin\\x64\\api-ms-win-core-handle-l1-1-0.dll',
   'BINARY'),
  ('api-ms-win-core-synch-l1-1-0.dll',
   'C:\\Users\\prego\\AppData\\Local\\Programs\\MiKTeX '
   '2.9\\miktex\\bin\\x64\\api-ms-win-core-synch-l1-1-0.dll',
   'BINARY'),
  ('api-ms-win-core-processthreads-l1-1-0.dll',
   'C:\\Users\\prego\\AppData\\Local\\Programs\\MiKTeX '
   '2.9\\miktex\\bin\\x64\\api-ms-win-core-processthreads-l1-1-0.dll',
   'BINARY'),
  ('api-ms-win-core-sysinfo-l1-1-0.dll',
   'C:\\Users\\prego\\AppData\\Local\\Programs\\MiKTeX '
   '2.9\\miktex\\bin\\x64\\api-ms-win-core-sysinfo-l1-1-0.dll',
   'BINARY'),
  ('api-ms-win-core-rtlsupport-l1-1-0.dll',
   'C:\\Users\\prego\\AppData\\Local\\Programs\\MiKTeX '
   '2.9\\miktex\\bin\\x64\\api-ms-win-core-rtlsupport-l1-1-0.dll',
   'BINARY'),
  ('api-ms-win-core-file-l2-1-0.dll',
   'C:\\Users\\prego\\AppData\\Local\\Programs\\MiKTeX '
   '2.9\\miktex\\bin\\x64\\api-ms-win-core-file-l2-1-0.dll',
   'BINARY'),
  ('api-ms-win-core-localization-l1-2-0.dll',
   'C:\\Users\\prego\\AppData\\Local\\Programs\\MiKTeX '
   '2.9\\miktex\\bin\\x64\\api-ms-win-core-localization-l1-2-0.dll',
   'BINARY'),
  ('api-ms-win-core-string-l1-1-0.dll',
   'C:\\Users\\prego\\AppData\\Local\\Programs\\MiKTeX '
   '2.9\\miktex\\bin\\x64\\api-ms-win-core-string-l1-1-0.dll',
   'BINARY'),
  ('api-ms-win-core-interlocked-l1-1-0.dll',
   'C:\\Users\\prego\\AppData\\Local\\Programs\\MiKTeX '
   '2.9\\miktex\\bin\\x64\\api-ms-win-core-interlocked-l1-1-0.dll',
   'BINARY'),
  ('api-ms-win-core-synch-l1-2-0.dll',
   'C:\\Users\\prego\\AppData\\Local\\Programs\\MiKTeX '
   '2.9\\miktex\\bin\\x64\\api-ms-win-core-synch-l1-2-0.dll',
   'BINARY'),
  ('api-ms-win-core-namedpipe-l1-1-0.dll',
   'C:\\Users\\prego\\AppData\\Local\\Programs\\MiKTeX '
   '2.9\\miktex\\bin\\x64\\api-ms-win-core-namedpipe-l1-1-0.dll',
   'BINARY'),
  ('api-ms-win-core-memory-l1-1-0.dll',
   'C:\\Users\\prego\\AppData\\Local\\Programs\\MiKTeX '
   '2.9\\miktex\\bin\\x64\\api-ms-win-core-memory-l1-1-0.dll',
   'BINARY'),
  ('api-ms-win-core-libraryloader-l1-1-0.dll',
   'C:\\Users\\prego\\AppData\\Local\\Programs\\MiKTeX '
   '2.9\\miktex\\bin\\x64\\api-ms-win-core-libraryloader-l1-1-0.dll',
   'BINARY'),
  ('api-ms-win-core-file-l1-2-0.dll',
   'C:\\Users\\prego\\AppData\\Local\\Programs\\MiKTeX '
   '2.9\\miktex\\bin\\x64\\api-ms-win-core-file-l1-2-0.dll',
   'BINARY'),
  ('api-ms-win-core-debug-l1-1-0.dll',
   'C:\\Users\\prego\\AppData\\Local\\Programs\\MiKTeX '
   '2.9\\miktex\\bin\\x64\\api-ms-win-core-debug-l1-1-0.dll',
   'BINARY'),
  ('api-ms-win-core-processthreads-l1-1-1.dll',
   'C:\\Users\\prego\\AppData\\Local\\Programs\\MiKTeX '
   '2.9\\miktex\\bin\\x64\\api-ms-win-core-processthreads-l1-1-1.dll',
   'BINARY'),
  ('api-ms-win-core-timezone-l1-1-0.dll',
   'C:\\Users\\prego\\AppData\\Local\\Programs\\MiKTeX '
   '2.9\\miktex\\bin\\x64\\api-ms-win-core-timezone-l1-1-0.dll',
   'BINARY'),
  ('PyQt5\\Qt\\plugins\\platforms\\qoffscreen.dll',
   'C:\\users\\prego\\appdata\\local\\programs\\python\\python36\\lib\\site-packages\\PyQt5\\Qt\\plugins\\platforms\\qoffscreen.dll',
   'BINARY'),
  ('PyQt5\\Qt\\plugins\\imageformats\\qtga.dll',
   'C:\\users\\prego\\appdata\\local\\programs\\python\\python36\\lib\\site-packages\\PyQt5\\Qt\\plugins\\imageformats\\qtga.dll',
   'BINARY'),
  ('PyQt5\\Qt\\plugins\\styles\\qwindowsvistastyle.dll',
   'C:\\users\\prego\\appdata\\local\\programs\\python\\python36\\lib\\site-packages\\PyQt5\\Qt\\plugins\\styles\\qwindowsvistastyle.dll',
   'BINARY'),
  ('PyQt5\\Qt\\plugins\\imageformats\\qwbmp.dll',
   'C:\\users\\prego\\appdata\\local\\programs\\python\\python36\\lib\\site-packages\\PyQt5\\Qt\\plugins\\imageformats\\qwbmp.dll',
   'BINARY'),
  ('PyQt5\\Qt\\plugins\\imageformats\\qjpeg.dll',
   'C:\\users\\prego\\appdata\\local\\programs\\python\\python36\\lib\\site-packages\\PyQt5\\Qt\\plugins\\imageformats\\qjpeg.dll',
   'BINARY'),
  ('PyQt5\\Qt\\plugins\\imageformats\\qwebp.dll',
   'C:\\users\\prego\\appdata\\local\\programs\\python\\python36\\lib\\site-packages\\PyQt5\\Qt\\plugins\\imageformats\\qwebp.dll',
   'BINARY'),
  ('PyQt5\\Qt\\plugins\\imageformats\\qgif.dll',
   'C:\\users\\prego\\appdata\\local\\programs\\python\\python36\\lib\\site-packages\\PyQt5\\Qt\\plugins\\imageformats\\qgif.dll',
   'BINARY'),
  ('PyQt5\\Qt\\plugins\\platforms\\qwindows.dll',
   'C:\\users\\prego\\appdata\\local\\programs\\python\\python36\\lib\\site-packages\\PyQt5\\Qt\\plugins\\platforms\\qwindows.dll',
   'BINARY'),
  ('PyQt5\\Qt\\plugins\\imageformats\\qicns.dll',
   'C:\\users\\prego\\appdata\\local\\programs\\python\\python36\\lib\\site-packages\\PyQt5\\Qt\\plugins\\imageformats\\qicns.dll',
   'BINARY'),
  ('PyQt5\\Qt\\plugins\\imageformats\\qsvg.dll',
   'C:\\users\\prego\\appdata\\local\\programs\\python\\python36\\lib\\site-packages\\PyQt5\\Qt\\plugins\\imageformats\\qsvg.dll',
   'BINARY'),
  ('PyQt5\\Qt\\plugins\\platforms\\qminimal.dll',
   'C:\\users\\prego\\appdata\\local\\programs\\python\\python36\\lib\\site-packages\\PyQt5\\Qt\\plugins\\platforms\\qminimal.dll',
   'BINARY'),
  ('PyQt5\\Qt\\plugins\\imageformats\\qtiff.dll',
   'C:\\users\\prego\\appdata\\local\\programs\\python\\python36\\lib\\site-packages\\PyQt5\\Qt\\plugins\\imageformats\\qtiff.dll',
   'BINARY'),
  ('PyQt5\\Qt\\plugins\\iconengines\\qsvgicon.dll',
   'C:\\users\\prego\\appdata\\local\\programs\\python\\python36\\lib\\site-packages\\PyQt5\\Qt\\plugins\\iconengines\\qsvgicon.dll',
   'BINARY'),
  ('PyQt5\\Qt\\plugins\\imageformats\\qico.dll',
   'C:\\users\\prego\\appdata\\local\\programs\\python\\python36\\lib\\site-packages\\PyQt5\\Qt\\plugins\\imageformats\\qico.dll',
   'BINARY'),
  ('_ssl',
   'c:\\users\\prego\\appdata\\local\\programs\\python\\python36\\DLLs\\_ssl.pyd',
   'EXTENSION'),
  ('unicodedata',
   'c:\\users\\prego\\appdata\\local\\programs\\python\\python36\\DLLs\\unicodedata.pyd',
   'EXTENSION'),
  ('pyexpat',
   'c:\\users\\prego\\appdata\\local\\programs\\python\\python36\\DLLs\\pyexpat.pyd',
   'EXTENSION'),
  ('_hashlib',
   'c:\\users\\prego\\appdata\\local\\programs\\python\\python36\\DLLs\\_hashlib.pyd',
   'EXTENSION'),
  ('_bz2',
   'c:\\users\\prego\\appdata\\local\\programs\\python\\python36\\DLLs\\_bz2.pyd',
   'EXTENSION'),
  ('_lzma',
   'c:\\users\\prego\\appdata\\local\\programs\\python\\python36\\DLLs\\_lzma.pyd',
   'EXTENSION'),
  ('_socket',
   'c:\\users\\prego\\appdata\\local\\programs\\python\\python36\\DLLs\\_socket.pyd',
   'EXTENSION'),
  ('select',
   'c:\\users\\prego\\appdata\\local\\programs\\python\\python36\\DLLs\\select.pyd',
   'EXTENSION'),
  ('PyQt5.QtCore',
   'c:\\users\\prego\\appdata\\local\\programs\\python\\python36\\lib\\site-packages\\PyQt5\\QtCore.pyd',
   'EXTENSION'),
  ('PyQt5.QtGui',
   'c:\\users\\prego\\appdata\\local\\programs\\python\\python36\\lib\\site-packages\\PyQt5\\QtGui.pyd',
   'EXTENSION'),
  ('PyQt5.QtWidgets',
   'c:\\users\\prego\\appdata\\local\\programs\\python\\python36\\lib\\site-packages\\PyQt5\\QtWidgets.pyd',
   'EXTENSION'),
  ('PyQt5.sip',
   'c:\\users\\prego\\appdata\\local\\programs\\python\\python36\\lib\\site-packages\\PyQt5\\sip.pyd',
   'EXTENSION'),
  ('sip',
   'c:\\users\\prego\\appdata\\local\\programs\\python\\python36\\lib\\site-packages\\sip.pyd',
   'EXTENSION'),
  ('api-ms-win-crt-utility-l1-1-0.dll',
   'C:\\Users\\prego\\AppData\\Local\\Programs\\MiKTeX '
   '2.9\\miktex\\bin\\x64\\api-ms-win-crt-utility-l1-1-0.dll',
   'BINARY'),
  ('Qt5Gui.dll',
   'c:\\users\\prego\\appdata\\local\\programs\\python\\python36\\lib\\site-packages\\PyQt5\\Qt\\bin\\qt5gui.dll',
   'BINARY'),
  ('Qt5Core.dll',
   'c:\\users\\prego\\appdata\\local\\programs\\python\\python36\\lib\\site-packages\\PyQt5\\Qt\\bin\\qt5core.dll',
   'BINARY'),
  ('Qt5Widgets.dll',
   'c:\\users\\prego\\appdata\\local\\programs\\python\\python36\\lib\\site-packages\\PyQt5\\Qt\\bin\\qt5widgets.dll',
   'BINARY'),
  ('Qt5Svg.dll',
   'c:\\users\\prego\\appdata\\local\\programs\\python\\python36\\lib\\site-packages\\PyQt5\\Qt\\bin\\qt5svg.dll',
   'BINARY'),
  ('python3.dll',
   'c:\\users\\prego\\appdata\\local\\programs\\python\\python36\\python3.dll',
   'BINARY'),
  ('MSVCP140.dll',
   'c:\\users\\prego\\appdata\\local\\programs\\python\\python36\\lib\\site-packages\\PyQt5\\Qt\\bin\\MSVCP140.dll',
   'BINARY'),
  ('api-ms-win-crt-multibyte-l1-1-0.dll',
   'C:\\Users\\prego\\AppData\\Local\\Programs\\MiKTeX '
   '2.9\\miktex\\bin\\x64\\api-ms-win-crt-multibyte-l1-1-0.dll',
   'BINARY')],
 [],
 [],
 [('base_library.zip',
   'C:\\Users\\prego\\OneDrive\\Dokumenty\\PyCharmProjects\\2018Z_AISD_proj_zesp_gr10\\kod\\PZRSP\\view\\build\\main\\base_library.zip',
   'DATA'),
  ('PyQt5\\Qt\\translations\\qtbase_cs.qm',
   'C:\\users\\prego\\appdata\\local\\programs\\python\\python36\\lib\\site-packages\\PyQt5\\Qt\\translations\\qtbase_cs.qm',
   'DATA'),
  ('PyQt5\\Qt\\translations\\qtbase_fi.qm',
   'C:\\users\\prego\\appdata\\local\\programs\\python\\python36\\lib\\site-packages\\PyQt5\\Qt\\translations\\qtbase_fi.qm',
   'DATA'),
  ('PyQt5\\Qt\\translations\\qtbase_lv.qm',
   'C:\\users\\prego\\appdata\\local\\programs\\python\\python36\\lib\\site-packages\\PyQt5\\Qt\\translations\\qtbase_lv.qm',
   'DATA'),
  ('PyQt5\\Qt\\translations\\qtbase_uk.qm',
   'C:\\users\\prego\\appdata\\local\\programs\\python\\python36\\lib\\site-packages\\PyQt5\\Qt\\translations\\qtbase_uk.qm',
   'DATA'),
  ('PyQt5\\Qt\\translations\\qtbase_sk.qm',
   'C:\\users\\prego\\appdata\\local\\programs\\python\\python36\\lib\\site-packages\\PyQt5\\Qt\\translations\\qtbase_sk.qm',
   'DATA'),
  ('PyQt5\\Qt\\bin\\qt.conf',
   'C:\\users\\prego\\appdata\\local\\programs\\python\\python36\\lib\\site-packages\\PyQt5\\Qt\\bin\\qt.conf',
   'DATA'),
  ('PyQt5\\Qt\\translations\\qtbase_ru.qm',
   'C:\\users\\prego\\appdata\\local\\programs\\python\\python36\\lib\\site-packages\\PyQt5\\Qt\\translations\\qtbase_ru.qm',
   'DATA'),
  ('PyQt5\\Qt\\translations\\qtbase_hu.qm',
   'C:\\users\\prego\\appdata\\local\\programs\\python\\python36\\lib\\site-packages\\PyQt5\\Qt\\translations\\qtbase_hu.qm',
   'DATA'),
  ('PyQt5\\Qt\\translations\\qtbase_ko.qm',
   'C:\\users\\prego\\appdata\\local\\programs\\python\\python36\\lib\\site-packages\\PyQt5\\Qt\\translations\\qtbase_ko.qm',
   'DATA'),
  ('PyQt5\\Qt\\translations\\qtbase_da.qm',
   'C:\\users\\prego\\appdata\\local\\programs\\python\\python36\\lib\\site-packages\\PyQt5\\Qt\\translations\\qtbase_da.qm',
   'DATA'),
  ('PyQt5\\Qt\\translations\\qtbase_ar.qm',
   'C:\\users\\prego\\appdata\\local\\programs\\python\\python36\\lib\\site-packages\\PyQt5\\Qt\\translations\\qtbase_ar.qm',
   'DATA'),
  ('PyQt5\\Qt\\translations\\qtbase_he.qm',
   'C:\\users\\prego\\appdata\\local\\programs\\python\\python36\\lib\\site-packages\\PyQt5\\Qt\\translations\\qtbase_he.qm',
   'DATA'),
  ('PyQt5\\Qt\\translations\\qtbase_pl.qm',
   'C:\\users\\prego\\appdata\\local\\programs\\python\\python36\\lib\\site-packages\\PyQt5\\Qt\\translations\\qtbase_pl.qm',
   'DATA'),
  ('PyQt5\\Qt\\translations\\qtbase_de.qm',
   'C:\\users\\prego\\appdata\\local\\programs\\python\\python36\\lib\\site-packages\\PyQt5\\Qt\\translations\\qtbase_de.qm',
   'DATA'),
  ('PyQt5\\Qt\\translations\\qtbase_ja.qm',
   'C:\\users\\prego\\appdata\\local\\programs\\python\\python36\\lib\\site-packages\\PyQt5\\Qt\\translations\\qtbase_ja.qm',
   'DATA'),
  ('PyQt5\\Qt\\translations\\qtbase_fr.qm',
   'C:\\users\\prego\\appdata\\local\\programs\\python\\python36\\lib\\site-packages\\PyQt5\\Qt\\translations\\qtbase_fr.qm',
   'DATA'),
  ('PyQt5\\Qt\\translations\\qtbase_gd.qm',
   'C:\\users\\prego\\appdata\\local\\programs\\python\\python36\\lib\\site-packages\\PyQt5\\Qt\\translations\\qtbase_gd.qm',
   'DATA'),
  ('PyQt5\\Qt\\translations\\qtbase_en.qm',
   'C:\\users\\prego\\appdata\\local\\programs\\python\\python36\\lib\\site-packages\\PyQt5\\Qt\\translations\\qtbase_en.qm',
   'DATA'),
  ('PyQt5\\Qt\\translations\\qtbase_ca.qm',
   'C:\\users\\prego\\appdata\\local\\programs\\python\\python36\\lib\\site-packages\\PyQt5\\Qt\\translations\\qtbase_ca.qm',
   'DATA'),
  ('PyQt5\\Qt\\translations\\qtbase_it.qm',
   'C:\\users\\prego\\appdata\\local\\programs\\python\\python36\\lib\\site-packages\\PyQt5\\Qt\\translations\\qtbase_it.qm',
   'DATA'),
  ('PyQt5\\Qt\\translations\\qtbase_bg.qm',
   'C:\\users\\prego\\appdata\\local\\programs\\python\\python36\\lib\\site-packages\\PyQt5\\Qt\\translations\\qtbase_bg.qm',
   'DATA'),
  ('PyQt5\\Qt\\translations\\qtbase_es.qm',
   'C:\\users\\prego\\appdata\\local\\programs\\python\\python36\\lib\\site-packages\\PyQt5\\Qt\\translations\\qtbase_es.qm',
   'DATA')],
 [])
